INVERTER_Folder,INVERTER_Name,INVCAP
INVERTER_1_Inverter 01,INVERTER_1_Anklesh_Inverter 01,89.6
INVERTER_2_Inverter 02,INVERTER_2_Anklesh_Inverter 02,89.6
INVERTER_3_Inverter 03,INVERTER_3_Anklesh_Inverter 03,89.6
INVERTER_4_Inverter 04,INVERTER_4_Anklesh_Inverter 04,89.6
INVERTER_5_Inverter 05,INVERTER_5_Anklesh_Inverter 05,89.6
INVERTER_6_Inverter 06,INVERTER_6_Anklesh_Inverter 06,89.6
INVERTER_7_Inverter 07,INVERTER_7_Anklesh_Inverter 07,89.6
INVERTER_8_Inverter 08,INVERTER_8_Anklesh_Inverter 08,83.2
INVERTER_9_Inverter 09,INVERTER_9_Anklesh_Inverter 09,76.8
INVERTER_10_Inverter 10,INVERTER_10_Anklesh_Inverter 10,64
INVERTER_11_Inverter 11,INVERTER_11_Anklesh_Inverter 11,89.6
INVERTER_12_Inverter 12,INVERTER_12_Anklesh_Inverter 12,64
INVERTER_13_SSR Inverter-01,INVERTER_13_SSR_Inverter-01,84.5
INVERTER_14_SSR Inverter-07,INVERTER_14_SSR_Inverter-07,84.5
INVERTER_15_SSR Inverter-14,INVERTER_15_SSR_Inverter-14,78
INVERTER_16_SSR Inverter-21,INVERTER_16_SSR_Inverter-21,91
INVERTER_17_SSR Inverter-22,INVERTER_17_SSR_Inverter-22,91
INVERTER_18_SSR Inverter-15,INVERTER_18_SSR_Inverter-15,84.5
INVERTER_19_SSR Inverter-02,INVERTER_19_SSR_Inverter-02,91
INVERTER_20_SSR Inverter-08,INVERTER_20_SSR_Inverter-08,84.5
INVERTER_21_SSR Inverter-16,INVERTER_21_SSR_Inverter-16,78
INVERTER_22_SSR Inverter-23,INVERTER_22_SSR_Inverter-23,84.5
INVERTER_23_SSR Inverter-09,INVERTER_23_SSR_Inverter-09,84.5
INVERTER_24_SSR Inverter-03,INVERTER_24_SSR_Inverter-03,91
INVERTER_25_Inverter-02,INVERTER_25_AMD1_Inverter-02,89.6
INVERTER_26_Inverter-03,INVERTER_26_AMD1_Inverter-03,89.6
INVERTER_27_Inverter-04,INVERTER_27_AMD1_Inverter-04,89.6
INVERTER_28_Inverter-05,INVERTER_28_AMD1_Inverter-05,89.6
INVERTER_29_Inverter-06,INVERTER_29_AMD1_Inverter-06,84.5
INVERTER_30_Inverter-07,INVERTER_30_AMD1_Inverter-07,91
INVERTER_31_Inverter-08,INVERTER_31_AMD1_Inverter-08,84.5
INVERTER_32_Inverter-09,INVERTER_32_AMD1_Inverter-09,91
INVERTER_33_Inverter-10,INVERTER_33_AMD1_Inverter-10,58.5
INVERTER_34_Inverter-11,INVERTER_34_AMD1_Inverter-11,52
INVERTER_35_Inverter-22,INVERTER_35_AMD1_Inverter-22,84.5
INVERTER_36_Inverter-23,INVERTER_36_AMD1_Inverter-23,84.5
INVERTER_37_Inverter-24,INVERTER_37_AMD1_Inverter-24,91
INVERTER_38_Inverter-25,INVERTER_38_AMD1_Inverter-25,91
INVERTER_39_Inverter-01,INVERTER_39_Anmol_Inverter-01,89.6
INVERTER_40_Inverter-02,INVERTER_40_Anmol_Inverter-02,89.6
INVERTER_41_Inverter-03,INVERTER_41_Anmol_Inverter-03,89.6
INVERTER_42_Inverter-04,INVERTER_42_Anmol_Inverter-04,89.6
INVERTER_43_Inverter-05,INVERTER_43_Anmol_Inverter-05,89.6
INVERTER_44_Inverter-06,INVERTER_44_Anmol_Inverter-06,89.6
INVERTER_45_Inverter-07,INVERTER_45_Anmol_Inverter-07,89.6
INVERTER_46_Inverter-08,INVERTER_46_Anmol_Inverter-08,64
INVERTER_47_Inverter-09,INVERTER_47_Anmol_Inverter-09,89.6
INVERTER_48_Inverter-10,INVERTER_48_Anmol_Inverter-10,89.6
INVERTER_49_Inverter-11,INVERTER_49_Anmol_Inverter-11,89.6
INVERTER_50_Inverter-12,INVERTER_50_Anmol_Inverter-12,89.6
INVERTER_51_Inverter-14,INVERTER_51_Anmol_Inverter-14,89.6
INVERTER_52_Inverter-13,INVERTER_52_Anmol_Inverter-13,89.6
INVERTER_53_Inverter-01,INVERTER_53_AMD2_Inverter-01,89.6
INVERTER_54_Inverter-12,INVERTER_54_AMD2_Inverter-12,57.6
INVERTER_55_Inverter-13,INVERTER_55_AMD2_Inverter-13,57.6
INVERTER_56_Inverter-14,INVERTER_56_AMD2_Inverter-14,83.2
INVERTER_57_Inverter-15,INVERTER_57_AMD2_Inverter-15,89.6
INVERTER_58_Inverter-16,INVERTER_58_AMD2_Inverter-16,84.5
INVERTER_59_Inverter-17,INVERTER_59_AMD2_Inverter-17,84.5
INVERTER_60_Inverter-18,INVERTER_60_AMD2_Inverter-18,84.5
INVERTER_61_Inverter-19,INVERTER_61_AMD2_Inverter-19,58.5
INVERTER_62_Inverter-20,INVERTER_62_AMD2_Inverter-20,84.5
INVERTER_63_Inverter-21,INVERTER_63_AMD2_Inverter-21,65
INVERTER_64_Inverter-03,INVERTER_64_Classic1_Inverter-03,65
INVERTER_65_Inverter-04,INVERTER_65_Classic1_Inverter-04,65
INVERTER_66_Inverter-05,INVERTER_66_Classic1_Inverter-05,91
INVERTER_67_Inverter-07,INVERTER_67_Classic1_Inverter-07,78
INVERTER_68_Inverter-08,INVERTER_68_Classic1_Inverter-08,78
INVERTER_69_Inverter-10,INVERTER_69_Classic1_Inverter-10,91
INVERTER_70_Inverter-01,INVERTER_70_Classic1_Inverter-01,84.5
INVERTER_71_Inverter-02,INVERTER_71_Classic1_Inverter-02,65
INVERTER_72_Inverter-06,INVERTER_72_Classic1_Inverter-06,84.5
INVERTER_73_Inverter-09,INVERTER_73_Classic1_Inverter-09,65
INVERTER_74_Inverter-01,INVERTER_74_Classic234_Inverter-01,64
INVERTER_75_Inverter-02,INVERTER_75_Classic234_Inverter-02,83.2
INVERTER_76_Inverter-03,INVERTER_76_Classic234_Inverter-03,89.6
INVERTER_77_Inverter-04,INVERTER_77_Classic234_Inverter-04,89.6
INVERTER_78_Inverter-13,INVERTER_78_Classic234_Inverter-13,89.6
INVERTER_79_Inverter-14,INVERTER_79_Classic234_Inverter-14,89.6
INVERTER_80_Inverter-15,INVERTER_80_Classic234_Inverter-15,89.6
INVERTER_81_Inverter-16,INVERTER_81_Classic234_Inverter-16,64
INVERTER_82_Inverter-05,INVERTER_82_Classic234_Inverter-05,89.6
INVERTER_83_Inverter-11,INVERTER_83_Classic234_Inverter-11,83.2
INVERTER_84_Inverter-12,INVERTER_84_Classic234_Inverter-12,89.6
INVERTER_85_X12- Inverter-01,INVERTER_85_X12_Inverter-01,66
INVERTER_86_X-12 Inverter-02,INVERTER_86_X12_Inverter-02,66
INVERTER_87_Inverter-01,INVERTER_87_Amber_Inverter-01,91
INVERTER_88_Inverter-02,INVERTER_88_Amber_Inverter-02,65
INVERTER_89_Inverter-01,INVERTER_89_D&S_Inverter-01,89.6
INVERTER_90_Inverter-02,INVERTER_90_D&S_Inverter-02,89.6
INVERTER_91_Inverter-03,INVERTER_91_D&S_Inverter-03,89.6
INVERTER_92_Inverter-04,INVERTER_92_D&S_Inverter-04,83.2
INVERTER_93_Inverter-05,INVERTER_93_D&S_Inverter-05,76.8
INVERTER_94_Inverter-06,INVERTER_94_D&S_Inverter-06,89.6
INVERTER_95_Inverter-07,INVERTER_95_D&S_Inverter-07,89.6
INVERTER_96_Inverter-08,INVERTER_96_D&S_Inverter-08,89.6
INVERTER_97_Inverter-09,INVERTER_97_D&S_Inverter-09,51.2
INVERTER_98_Inverter-10,INVERTER_98_D&S_Inverter-10,83.2
INVERTER_99_Inverter-11,INVERTER_99_D&S_Inverter-11,57.6
INVERTER_100_Wrapping Inverter-10,INVERTER_100_Bottom Block_Wrapping Inverter-10,66
INVERTER_101_Wrapping Inverter-11,INVERTER_101_Bottom Block_Wrapping Inverter-11,89.6
INVERTER_102_Grey Godown Inverter-06,INVERTER_102_Bottom Block_Grey Godown Inverter-06,89.6
INVERTER_103_Grey Godown Inverter-07,INVERTER_103_Bottom Block_Grey Godown Inverter-07,89.6
INVERTER_104_Looms Inverter-12,INVERTER_104_Bottom Block_Looms Inverter-12,64
INVERTER_105_Looms inverter-13,INVERTER_105_Bottom Block_Looms inverter-13,64
INVERTER_106_Looms Inverter-14,INVERTER_106_Bottom Block_Looms Inverter-14,89.6
INVERTER_107_Looms Inverter-15,INVERTER_107_Bottom Block_Looms Inverter-15,89.6
INVERTER_108_Looms inverter-16,INVERTER_108_Bottom Block_Looms inverter-16,89.6
INVERTER_109_Looms inverter-17,INVERTER_109_Bottom Block_Looms inverter-17,57.6
INVERTER_110_Inverter-02,INVERTER_110_Yarn Godown_Inverter-02,91
INVERTER_111_Inverter-03,INVERTER_111_Yarn Godown_Inverter-03,91
INVERTER_112_Inverter-04,INVERTER_112_Yarn Godown_Inverter-04,91
INVERTER_113_Inverter-05,INVERTER_113_Yarn Godown_Inverter-05,91
INVERTER_114_Inverter-01,INVERTER_114_Yarn Godown_Inverter-01,84.5
INVERTER_115_Wrapping Inverter-05,INVERTER_115_Yarn Godown_Wrapping Inverter-05,89.6
INVERTER_116_Inverter-02,INVERTER_116_Warehouse_Inverter-02,91
INVERTER_117_Inverter-03,INVERTER_117_Warehouse_Inverter-03,58.5
INVERTER_118_Inverter-04,INVERTER_118_Warehouse_Inverter-04,58.5
INVERTER_119_Inverter-01,INVERTER_119_Warehouse_Inverter-01,91
INVERTER_120_Inverter-01,INVERTER_120_Library_Inverter-01,83.2
INVERTER_121_Inverter-02,INVERTER_121_Library_Inverter-02,89.6
INVERTER_122_Inverter-01,INVERTER_122_Achal PV_Inverter-01,89.6
INVERTER_123_inverter-02,INVERTER_123_Achal PV_inverter-02,89.6
INVERTER_124_Inverter-03,INVERTER_124_Achal PV_Inverter-03,89.6
INVERTER_125_Inverter-04,INVERTER_125_Achal PV_Inverter-04,89.6
INVERTER_126_inverter-05,INVERTER_126_Achal PV_inverter-05,89.6
INVERTER_127_Inverter-06,INVERTER_127_Achal PV_Inverter-06,89.6
INVERTER_128_Inverter-07,INVERTER_128_Achal PV_Inverter-07,89.6
INVERTER_129_Inverter-08,INVERTER_129_Achal PV_Inverter-08,89.6
INVERTER_130_Inverter-09,INVERTER_130_Achal PV_Inverter-09,89.6
INVERTER_131_Inverter-10,INVERTER_131_Achal PV_Inverter-10,51.2
INVERTER_132_Inverter-11,INVERTER_132_Achal PV_Inverter-11,89.6
INVERTER_133_Inverter-12,INVERTER_133_Achal PV_Inverter-12,89.6
INVERTER_134_Inverter-13,INVERTER_134_Achal PV_Inverter-13,89.6
INVERTER_135_Inverter-14,INVERTER_135_Achal PV_Inverter-14,89.6
