Meter,Inverter,Val
ACH,1,89.6
ACH,2,89.6
ACH,3,89.6
ACH,4,89.6
ACH,5,89.6
ACH,6,89.6
ACH,7,89.6
ACH,8,89.6
ACH,9,89.6
ACH,10,51.2
ACH,11,89.6
ACH,12,89.6
ACH,13,89.6
ACH,14,89.6
ACH,15,89.6
ACH,16,89.6
ACH,17,51.2
ACH,18,89.6
ACH,19,89.6
ACH,20,89.6
ACH,21,89.6
AMB,1,91
AMB,2,65
AMD,1,89.6
AMD,2,89.6
AMD,3,89.6
AMD,4,89.6
AMD,5,89.6
AMD,6,84.5
AMD,7,91
AMD,8,84.5
AMD,9,91
AMD,10,58.5
AMD,11,52
AMD,12,57.6
AMD,13,57.6
AMD,14,83.2
AMD,15,89.6
AMD,16,84.5
AMD,17,84.5
AMD,18,84.5
AMD,19,58.5
AMD,20,84.5
AMD,21,65
AMD,22,84.5
AMD,23,84.5
AMD,24,91
AMD,25,91
ANM,1,89.6
ANM,2,89.6
ANM,3,89.6
ANM,4,89.6
ANM,5,89.6
ANM,6,89.6
ANM,7,89.6
ANM,8,64
ANM,9,89.6
ANM,10,89.6
ANM,11,89.6
ANM,12,89.6
ANM,13,89.6
ANM,14,89.6
ANM,15,89.6
ANM,16,89.6
ANM,17,76.8
ANM,18,76.8
ANM,19,89.6
ANM,20,89.6
ANM,21,64
ANK,1,89.6
ANK,2,89.6
ANK,3,89.6
ANK,4,89.6
ANK,5,89.6
ANK,6,89.6
ANK,7,89.6
ANK,8,83.2
ANK,9,76.8
ANK,10,64
ANK,11,89.6
ANK,12,64
C1,1,84.5
C1,2,65
C1,3,65
C1,4,65
C1,5,91
C1,6,84.5
C1,7,78
C1,8,78
C1,9,65
C1,10,91
C234,1,64
C234,2,83.2
C234,3,89.6
C234,4,89.6
C234,5,89.6
C234,6,64
C234,7,83.2
C234,8,89.6
C234,9,89.6
C234,10,83.2
C234,11,83.2
C234,12,89.6
C234,13,89.6
C234,14,89.6
C234,15,89.6
C234,16,64
DS,1,89.6
DS,2,89.6
DS,3,89.6
DS,4,83.2
DS,5,76.8
DS,6,89.6
DS,7,89.6
DS,8,89.6
DS,9,51.2
SSR,21,91
SSR,14,78
SSR,7,84.5
SSR,1,84.5
SSR,22,91
SSR,15,84.5
SSR,2,91
SSR,8,84.5
SSR,16,78
SSR,23,84.5
SSR,9,84.5
SSR,3,91
SSR,10,84.5
SSR,17,84.5
SSR,24,84.5
SSR,4,84.5
SSR,25,84.5
SSR,18,84.5
SSR,11,84.5
SSR,19,84.5
SSR,12,78
SSR,5,84.5
SSR,26,91
SSR,20,84.5
SSR,6,91
SSR,13,84.5
YG,1,91
YG,2,91
YG,3,91
YG,4,91
YG,5,84.5
Loom,12,64
Loom,13,64
Loom,14,89.6
Loom,15,89.6
Loom,16,89.6
Loom,17,57.6
GreyGo,6,89.6
GreyGo,7,89.6
GreyGo,8,83.2
GreyGo,9,83.2
Warp,5,89.6
Warp,10,66
Warp,11,89.6
X12,1,66
X12,2,66
Insp,1,89.6
Insp,2,89.6
Insp,3,64
Insp,4,89.6
TP1,1,84.5
TP1,2,65
TP1,3,65
TP1,4,78
TP2,1,80.275
TP2,2,80.275
TP2,3,63.05
TP2,4,58.5
YW,1,91
YW,2,91
YW,3,58.5
YW,4,58.5
Den,1,89.6
Den,2,89.6
Den,3,89.6
Den,4,83.2
Den,5,76.8
Den,6,89.6
Den,7,89.6
Den,8,89.6
Den,9,51.2
SH100,10,83.2
SH100,11,57.6
SL,1,83.2
SL,2,89.6
